44941 830204 509
544050 215906 470
267385 60164 443
836410 920285 525
343798 689443 509
27924 281979 443
94475 137789 354
721270 310292 509
842580 451538 525
613957 358169 470
357198 894313 525
628174 21549 509
207262 347669 443
963548 663801 525
498968 50832 449
654234 17743 509
626134 889821 525
477643 424899 444
865348 283856 525
34165 193670 383
800991 785785 468
520849 841444 525
21474 966440 525
933472 702547 525
168531 76258 383
584101 254016 470
972175 417795 525
202557 764049 509
663744 17914 509
300805 349223 441
32188 265026 443
633005 26546 509
897922 482382 525
353617 32830 443
271794 996260 525
695082 630985 442
528912 757519 509
623779 408616 470
297895 701237 509
793706 448836 509
11824 616687 470
581264 259604 470
106268 91311 354
412908 565040 470
782489 556451 509
784119 390494 509
587058 344913 470
184242 604533 470
55597 300693 443
769902 905229 525
549212 585756 434
544801 64915 470
618117 309409 470
335831 8836 443
820154 552689 509
422038 619039 470
12618 623398 470
613177 191832 470
810521 544543 509
677374 46161 509
91129 873070 525
965233 713610 525
26439 672036 509
111697 776898 509
267966 859864 525
733843 613185 509
227580 406885 443
5851 193325 383
459373 142455 449
323918 1356 443
295113 232784 407
790476 390543 509
663979 685514 442
634571 851455 525
218352 689222 509
405238 425762 449
184591 178197 365
756961 211654 509
931794 474370 525
284122 133464 443
173985 334891 443
887391 230439 525
777355 42547 509
957098 35785 525
765446 561654 509
209484 233756 443
493551 272019 449
840334 283396 525
26691 396238 443
362497 758210 509
792843 31005 509
163552 638758 509
336054 906858 525
510385 531686 470
54535 559941 470
200397 634242 509
470569 996815 525
123674 387238 443
753484 508625 509
185592 28341 383
292978 57073 443
187459 238562 443
659736 194928 509
866481 380489 525
976401 383278 525
199318 70087 383
418734 77154 449
383867 84752 443
805819 193498 509
861052 927745 476
910966 374947 525
401433 824776 509
649007 29269 509
54787 497343 449
898658 684888 525
345727 204497 443
998004 380703 525
593293 402625 470
245710 695458 509
221158 879022 525
86839 853968 525
525574 180235 470
232380 81067 443
947076 595155 525
48688 655107 509
814611 886075 525
781894 643339 504
437769 488310 444
280501 764847 509
715881 99203 509
792659 948140 525
517182 59819 470
304628 701138 509
37168 545207 470
726406 623394 509
918774 419993 525
914300 21470 525
499477 478035 426
690522 839528 525
496404 28087 449
243070 87559 443
772421 294668 509
624904 751430 509
816960 243739 509
416289 685276 509
442221 922179 525
660592 409485 509
106144 447991 449
940056 785873 525
328154 549567 470
311947 71568 443
27397 405711 443
347537 363827 410
209127 839742 525
753866 928887 525
876933 608730 525
61775 611814 470
187423 748902 509
53700 300690 443
92955 317610 443
538614 287832 470
176252 646316 509
567095 366831 470
340186 588581 470
29151 522621 470
682135 992888 525
204754 562172 470
626085 864498 525
735971 990759 525
343169 622357 470
886543 273348 525
71930 556317 470
854933 436378 525
811815 339169 509
575910 388042 470
324235 385628 441
373813 806588 509
632362 5672 509
395131 564743 470
767598 48241 509
968117 758882 525
588030 319931 470
778387 596274 509
903992 776436 525
938173 657744 525
783932 892597 525
163816 445205 449
940881 103595 525
773650 173264 509
787877 63709 509
968027 180666 525
807116 626479 504
96358 642982 509
171969 449662 449
523533 542234 408
892656 650542 525
464393 334927 449
869209 36513 525
244756 240883 337
988310 153650 525
319899 323430 371
627883 110334 509
417167 186252 449
765750 525642 509
536146 812039 509
167972 333202 443
17782 738924 509
441581 156224 449
767132 135696 509
843650 817150 525
221050 919493 525
738232 268832 509
614849 86084 470
423075 817527 509
690284 324558 509
148495 242340 443
629115 390360 509
810257 544365 509
241746 225567 443
160636 153052 383
621131 203809 470
75506 882625 525
124784 530443 470
655414 699436 442
482494 175721 449
472195 699846 509
851787 738544 525
5618 898783 525
699302 848970 525
512070 224709 470
978689 794735 525
225403 388526 443
277958 845085 525
772801 809445 468
907560 997845 507
470864 252945 449
84328 659990 509
631996 964620 525
734014 906067 525
609393 667424 509
198054 219461 386
861052 347486 525
956416 848726 507
182873 562931 470
409240 342802 441
545638 637248 509
138802 378691 443
544879 814459 509
396090 321081 441
290288 504874 449
