951368 790475 525
833303 962339 525
339873 716259 509
478547 555812 470
677594 473610 509
832105 248113 509
952938 167274 525
691650 567845 509
265927 548258 470
229058 533065 470
763488 44869 509
39211 542111 470
969448 972717 458
424734 855707 525
249316 236870 368
696819 340704 509
887974 324367 525
759980 174714 509
397712 957434 525
675500 694465 442
336983 58192 443
206764 999169 525
202070 722467 509
352017 6064 443
881076 246875 525
14852 624440 470
517816 864814 525
552586 184149 470
250551 482698 449
86907 569837 470
133703 127915 344
98000 597261 470
914478 652417 525
161416 610648 470
191790 909574 525
960464 431640 525
318064 953433 525
359339 615393 470
271484 367819 441
129272 195075 383
688055 415212 509
91320 643052 509
958838 372092 525
649738 51691 509
484527 365983 449
763931 787583 468
354027 99898 443
527184 792102 509
532250 116830 470
311176 663043 509
698709 501034 509
202716 762424 509
850091 731312 525
245077 375281 441
608858 221105 470
725383 22213 509
451865 83592 449
390038 106734 443
214240 25700 383
449644 144377 449
238942 779896 509
150636 535391 470
765058 766176 331
393835 50553 443
781859 279982 509
546527 652566 509
223607 725789 509
567523 842804 525
643692 491390 509
69232 942345 525
903463 368304 525
238147 569137 470
801280 369333 509
226645 595158 470
192260 118326 383
725867 962204 525
18601 829574 509
443194 85262 449
436169 676312 509
113375 528380 470
528791 55523 470
434838 25400 449
905939 916539 476
989191 581706 525
665250 830752 504
29553 746460 509
4723 125599 354
573480 599962 434
474662 769546 509
745147 455236 509
138544 69405 354
890462 701450 525
143793 404066 443
306108 901815 525
10328 83394 351
335537 920702 525
365734 521408 470
977601 364475 525
896111 550592 525
574388 353979 470
538175 563390 452
656729 735736 504
57299 229075 386
833154 923833 525
543406 269064 470
148426 854229 525
41253 338693 443
21779 911003 525
829725 745626 468
580325 976744 525
427132 885501 525
6936 475666 449
494914 492751 395
907755 419805 525
574377 432113 470
909343 948322 507
661356 265515 509
940021 719081 525
14072 619715 470
885044 488104 525
237123 410513 449
684199 540519 509
589864 585471 359
693704 307324 509
550050 668795 509
288437 259153 407
904178 700710 525
197225 374180 443
930683 895414 476
813233 351106 509
444012 141206 449
440831 781575 509
180375 818124 509
481617 862906 525
839631 355862 525
550901 96324 470
101025 978914 525
1831 244361 443
123121 870568 525
171177 714388 509
595481 883915 525
967035 888912 507
523679 378545 470
403549 178630 443
310614 709310 509
477438 481156 413
52736 56266 322
702081 935455 525
748875 991180 525
56819 382384 443
300648 770317 509
976328 149896 525
732571 214295 509
514794 671349 509
553357 329302 470
592663 46635 470
226068 521248 470
258177 323137 407
250222 457036 449
359612 334443 441
507318 934708 525
589825 324054 470
665503 522733 509
391878 96641 443
663153 253984 509
323901 27360 443
135617 618529 470
895090 478530 525
729591 683237 504
526295 198144 470
278210 858179 525
61828 370400 443
755854 435083 509
782544 814739 468
814750 56859 509
341006 354134 441
786719 785003 375
441310 51079 449
39549 260575 443
110178 188873 383
200237 364254 443
771933 572365 509
891572 680520 525
462354 11152 449
366164 639854 509
802704 425183 509
719293 924753 525
328390 775044 509
214815 354885 443
953582 411928 525
262475 462545 449
407183 353173 436
398989 282327 441
252754 985254 525
379460 31422 443
497978 971275 525
443656 32860 449
503462 964041 525
40119 693384 509
6288 134108 354
1 10 20
100 200 125
201 210 89
900 1000 174
