262784 219749 443
666755 880663 525
660115 33992 509
260058 321665 407
257139 874993 525
102637 676315 509
265594 605998 470
404492 876993 525
337883 712298 509
40416 69290 340
248148 559807 470
131670 293527 443
10479 201973 383
822893 884661 525
302173 616658 470
507238 868083 525
945398 381235 525
717129 821717 468
544646 308656 470
405149 784166 509
39617 272351 443
726911 740882 424
310771 393172 441
260490 549453 470
136920 109353 349
564368 384463 470
212585 611298 470
741501 685936 504
293011 66068 443
121658 328347 443
32945 587432 470
667183 173352 509
630476 602222 509
297078 193261 443
175851 871563 525
425314 123810 449
845123 917874 476
378701 240858 441
672972 810312 504
735807 991373 525
740346 261381 509
241857 754005 509
388040 491776 449
894271 30184 525
435955 124064 449
363154 851954 525
597274 36994 470
243899 635656 509
14205 204441 383
232808 547417 470
161078 183638 365
124302 490788 449
79316 119784 354
873298 656588 525
856267 872751 432
342393 295273 384
787667 827326 468
39453 55137 340
713077 56141 509
499003 236761 449
268775 723468 509
634447 18780 509
262406 832796 509
642643 908589 525
623200 898092 525
548656 318395 470
724298 802487 468
18407 640081 509
230579 131234 386
549474 464666 470
640157 542029 509
73759 654971 509
735528 589235 509
39744 829576 509
561763 760048 509
183417 752431 509
917607 233247 525
36717 297209 443
815742 503765 509
477181 187948 449
943747 113835 525
194680 936976 525
751201 584308 509
990942 926242 507
222798 280834 443
257233 985087 525
770264 914462 525
105584 858101 525
756780 283700 509
917007 872722 476
241812 591011 470
707312 381974 509
892639 241768 525
9150 33341 308
614151 401602 470
574329 837001 509
993742 267163 525
125545 616531 470
573072 556030 421
131137 459166 449
421982 52620 449
436784 855325 525
139377 687714 509
868614 82854 525
691711 414332 509
97298 930952 525
495942 716308 509
908451 661524 525
783720 235299 509
261115 540282 470
514261 9716 470
436466 675237 509
661531 357794 509
256522 402938 441
681990 284169 509
259262 646054 509
266699 215443 443
925374 171801 525
151128 969850 525
324748 441990 449
131424 836434 509
555758 723548 509
737609 125080 509
48560 867247 525
845896 919651 476
958849 728700 525
448538 681445 509
884425 944576 507
340694 971857 525
956537 375093 525
48825 472616 449
703771 406308 509
315493 14795 443
773008 252027 509
946009 816345 525
854674 849517 419
778502 332989 509
248296 763979 509
156380 633200 509
553937 384018 470
680064 150650 509
996318 838005 507
640688 889348 525
756765 79400 509
615842 507281 470
123643 887017 525
484943 526248 470
895540 313536 525
914776 178117 525
529812 853954 525
631442 668155 442
984093 398447 525
581009 76935 470
951374 49853 525
482974 978457 525
755543 374021 509
963042 179559 525
829454 422637 509
123304 242963 443
896636 724573 525
937200 689400 525
35157 452260 449
372442 184639 443
241717 901189 525
586066 121430 470
899343 978850 507
122691 476434 449
853968 860410 419
783299 372387 509
234000 883796 525
422019 120015 449
508468 744341 509
761444 904350 525
902259 300889 525
736920 755118 424
207753 915567 525
273326 586954 470
10002 832085 509
488967 122133 449
268800 615715 470
184938 890827 525
906189 592394 525
135968 288877 443
18005 896751 525
769864 472712 509
616186 24711 470
927478 863785 476
509433 582404 470
434957 92998 449
655253 502923 509
237383 163838 443
633760 586213 509
952193 981134 458
467467 183544 449
809724 561485 509
52906 98655 351
62576 333003 443
770740 74770 509
625158 664278 509
737854 678230 504
251976 90506 443
593035 57821 470
789052 814376 468
29406 806726 509
84190 34405 351
861831 167490 525
879124 698647 525
64090 399083 443
706020 163456 509
867197 47191 525
244677 184209 443
943516 716465 525
630938 652334 416
860924 247049 525
374801 844797 525
204037 852191 525
336263 602481 470
737565 383903 509
119788 348664 443
656440 519722 509
655813 472867 509
657545 41728 509
569091 553413 421
624728 694853 509
422278 68193 449
430161 421298 418
400493 970864 525
726584 681837 504
498874 50475 449
141010 773101 509
753772 387793 509
885098 743171 525
738189 484218 509
387024 457598 449
499014 215705 449
793643 654586 504
688906 11575 509
306455 194188 443
232637 731344 509
476813 530526 470
736863 363506 509
897239 319846 525
598983 546090 452
799649 564277 509
880313 223865 525
851095 314649 525
630173 33160 509
494809 487689 426
543305 818029 509
144762 60399 375
199849 883096 525
380889 44749 443
663495 35949 509
249054 349599 441
287607 668061 509
642255 827592 504
476081 26302 449
580648 297562 470
749531 970450 525
465753 907704 525
592819 557543 434
648070 869194 525
980703 778731 525
228222 427138 449
51837 569521 470
6186 300375 443
336802 91192 443
576180 518591 452
211941 200899 373
158231 626907 509
987441 681256 525
538813 540671 408
774681 314925 509
182121 167050 365
4158 275622 443
624559 216665 470
485128 29856 449
727088 804929 468
373677 24677 443
94294 618267 470
902675 592367 525
467899 398913 449
226194 46176 386
581096 550175 421
883753 566015 525
880564 77565 525
780228 952820 525
676939 192450 509
948123 21150 525
113953 299341 443
157841 571780 470
952886 804922 525
668800 56475 509
544125 91146 470
62892 55503 335
892470 207087 525
986924 989242 396
940891 631395 525
914416 763504 525
551004 228292 470
